{
    "asset" : {
        "generator" : "Khronos glTF Blender I/O v1.6.16",
        "version" : "2.0"
    },
    "scene" : 0,
    "scenes" : [
        {
            "name" : "Scene",
            "nodes" : [
                0
            ]
        }
    ],
    "nodes" : [
        {
            "mesh" : 0,
            "name" : "GarbageSmallMid",
            "translation" : [
                0,
                0.39133650064468384,
                0.06892633438110352
            ]
        }
    ],
    "materials" : [
        {
            "doubleSided" : true,
            "name" : "Debris",
            "normalTexture" : {
                "index" : 0
            },
            "pbrMetallicRoughness" : {
                "baseColorTexture" : {
                    "index" : 1
                },
                "metallicFactor" : 0,
                "roughnessFactor" : 0.34781816601753235
            }
        }
    ],
    "meshes" : [
        {
            "name" : "Plane.001",
            "primitives" : [
                {
                    "attributes" : {
                        "POSITION" : 0,
                        "NORMAL" : 1,
                        "TEXCOORD_0" : 2
                    },
                    "indices" : 3,
                    "material" : 0
                }
            ]
        }
    ],
    "textures" : [
        {
            "sampler" : 0,
            "source" : 0
        },
        {
            "sampler" : 0,
            "source" : 0
        }
    ],
    "images" : [
        {
            "mimeType" : "image/jpeg",
            "name" : "debris_garbage_0026_02",
            "uri" : "debris_garbage_0026_02.jpg"
        }
    ],
    "accessors" : [
        {
            "bufferView" : 0,
            "componentType" : 5126,
            "count" : 976,
            "max" : [
                1.4977282285690308,
                0.489083856344223,
                1.4186056852340698
            ],
            "min" : [
                -1.3613777160644531,
                -0.5950979590415955,
                -1.4104536771774292
            ],
            "type" : "VEC3"
        },
        {
            "bufferView" : 1,
            "componentType" : 5126,
            "count" : 976,
            "type" : "VEC3"
        },
        {
            "bufferView" : 2,
            "componentType" : 5126,
            "count" : 976,
            "type" : "VEC2"
        },
        {
            "bufferView" : 3,
            "componentType" : 5123,
            "count" : 5376,
            "type" : "SCALAR"
        }
    ],
    "bufferViews" : [
        {
            "buffer" : 0,
            "byteLength" : 11712,
            "byteOffset" : 0
        },
        {
            "buffer" : 0,
            "byteLength" : 11712,
            "byteOffset" : 11712
        },
        {
            "buffer" : 0,
            "byteLength" : 7808,
            "byteOffset" : 23424
        },
        {
            "buffer" : 0,
            "byteLength" : 10752,
            "byteOffset" : 31232
        }
    ],
    "samplers" : [
        {
            "magFilter" : 9729,
            "minFilter" : 9987
        }
    ],
    "buffers" : [
        {
            "byteLength" : 41984,
            "uri" : "GarbageSmallMid.bin"
        }
    ]
}
