{
    "asset" : {
        "generator" : "Khronos glTF Blender I/O v1.6.16",
        "version" : "2.0"
    },
    "scene" : 0,
    "scenes" : [
        {
            "name" : "Scene",
            "nodes" : [
                4
            ]
        }
    ],
    "nodes" : [
        {
            "mesh" : 0,
            "name" : "Plane",
            "rotation" : [
                -0.07666429132223129,
                0,
                0,
                0.9970569610595703
            ],
            "scale" : [
                0.23791106045246124,
                0.23791106045246124,
                0.23791106045246124
            ],
            "translation" : [
                0.011853178963065147,
                0.2407563477754593,
                -0.07274597138166428
            ]
        },
        {
            "mesh" : 1,
            "name" : "Plane.001",
            "rotation" : [
                -0.06885594874620438,
                0.019258933141827583,
                -0.0061798798851668835,
                0.9974215626716614
            ],
            "scale" : [
                0.23791106045246124,
                0.23791106045246124,
                0.23791107535362244
            ],
            "translation" : [
                -0.12713837623596191,
                0.2754824161529541,
                0.17712728679180145
            ]
        },
        {
            "mesh" : 2,
            "name" : "Plane.002",
            "rotation" : [
                -0.12114465236663818,
                0.011971276253461838,
                0.13634034991264343,
                0.9831540584564209
            ],
            "scale" : [
                0.23791106045246124,
                0.23791106045246124,
                0.23791107535362244
            ],
            "translation" : [
                -0.08164560049772263,
                0.2964645028114319,
                0.01186326052993536
            ]
        },
        {
            "mesh" : 3,
            "name" : "Plane.003",
            "rotation" : [
                -0.13652020692825317,
                -0.9850277304649353,
                -0.10482567548751831,
                0.00970926508307457
            ],
            "scale" : [
                0.23791106045246124,
                0.23791106045246124,
                0.23791106045246124
            ],
            "translation" : [
                0.16117961704730988,
                0.27498191595077515,
                0.07320854812860489
            ]
        },
        {
            "children" : [
                0,
                1,
                2,
                3
            ],
            "mesh" : 4,
            "name" : "Debris",
            "scale" : [
                4.203251361846924,
                4.203251361846924,
                4.203251361846924
            ]
        }
    ],
    "materials" : [
        {
            "doubleSided" : true,
            "name" : "Concrete",
            "normalTexture" : {
                "index" : 0
            },
            "pbrMetallicRoughness" : {
                "baseColorTexture" : {
                    "index" : 1
                },
                "metallicFactor" : 0,
                "roughnessFactor" : 0.36181819438934326
            }
        },
        {
            "doubleSided" : true,
            "name" : "Debris",
            "normalTexture" : {
                "index" : 2
            },
            "pbrMetallicRoughness" : {
                "baseColorTexture" : {
                    "index" : 3
                },
                "metallicFactor" : 0,
                "metallicRoughnessTexture" : {
                    "index" : 4
                }
            }
        }
    ],
    "meshes" : [
        {
            "name" : "Plane.020",
            "primitives" : [
                {
                    "attributes" : {
                        "POSITION" : 0,
                        "NORMAL" : 1,
                        "TEXCOORD_0" : 2
                    },
                    "indices" : 3,
                    "material" : 0
                }
            ]
        },
        {
            "name" : "Plane.021",
            "primitives" : [
                {
                    "attributes" : {
                        "POSITION" : 4,
                        "NORMAL" : 5,
                        "TEXCOORD_0" : 6
                    },
                    "indices" : 7,
                    "material" : 0
                }
            ]
        },
        {
            "name" : "Plane.022",
            "primitives" : [
                {
                    "attributes" : {
                        "POSITION" : 8,
                        "NORMAL" : 9,
                        "TEXCOORD_0" : 10
                    },
                    "indices" : 11,
                    "material" : 0
                }
            ]
        },
        {
            "name" : "Plane.023",
            "primitives" : [
                {
                    "attributes" : {
                        "POSITION" : 12,
                        "NORMAL" : 13,
                        "TEXCOORD_0" : 14
                    },
                    "indices" : 11,
                    "material" : 0
                }
            ]
        },
        {
            "name" : "Plane.019",
            "primitives" : [
                {
                    "attributes" : {
                        "POSITION" : 15,
                        "NORMAL" : 16,
                        "TEXCOORD_0" : 17
                    },
                    "indices" : 18,
                    "material" : 1
                }
            ]
        }
    ],
    "textures" : [
        {
            "sampler" : 0,
            "source" : 0
        },
        {
            "sampler" : 0,
            "source" : 1
        },
        {
            "sampler" : 0,
            "source" : 2
        },
        {
            "sampler" : 0,
            "source" : 3
        },
        {
            "sampler" : 0,
            "source" : 4
        }
    ],
    "images" : [
        {
            "mimeType" : "image/png",
            "name" : "Capture2",
            "uri" : "Capture2.png"
        },
        {
            "mimeType" : "image/png",
            "name" : "Capture1",
            "uri" : "Capture1.png"
        },
        {
            "mimeType" : "image/png",
            "name" : "Rocks024S_2K_NormalGL",
            "uri" : "Rocks024S_2K_NormalGL.png"
        },
        {
            "mimeType" : "image/png",
            "name" : "Rocks024S_2K_Color",
            "uri" : "Rocks024S_2K_Color.png"
        },
        {
            "mimeType" : "image/png",
            "name" : "Rocks024S_2K_Roughness",
            "uri" : "Rocks024S_2K_Roughness.png"
        }
    ],
    "accessors" : [
        {
            "bufferView" : 0,
            "componentType" : 5126,
            "count" : 54,
            "max" : [
                0.3964996337890625,
                0.16337794065475464,
                0.2885586619377136
            ],
            "min" : [
                -0.4170248508453369,
                0,
                -0.3918205499649048
            ],
            "type" : "VEC3"
        },
        {
            "bufferView" : 1,
            "componentType" : 5126,
            "count" : 54,
            "type" : "VEC3"
        },
        {
            "bufferView" : 2,
            "componentType" : 5126,
            "count" : 54,
            "type" : "VEC2"
        },
        {
            "bufferView" : 3,
            "componentType" : 5123,
            "count" : 132,
            "type" : "SCALAR"
        },
        {
            "bufferView" : 4,
            "componentType" : 5126,
            "count" : 34,
            "max" : [
                0.5955569744110107,
                0.10693264752626419,
                0.30899378657341003
            ],
            "min" : [
                -0.5528383851051331,
                0,
                -0.3256094455718994
            ],
            "type" : "VEC3"
        },
        {
            "bufferView" : 5,
            "componentType" : 5126,
            "count" : 34,
            "type" : "VEC3"
        },
        {
            "bufferView" : 6,
            "componentType" : 5126,
            "count" : 34,
            "type" : "VEC2"
        },
        {
            "bufferView" : 7,
            "componentType" : 5123,
            "count" : 72,
            "type" : "SCALAR"
        },
        {
            "bufferView" : 8,
            "componentType" : 5126,
            "count" : 48,
            "max" : [
                0.2750890254974365,
                0.12797193229198456,
                0.5
            ],
            "min" : [
                -0.5,
                0,
                -0.5
            ],
            "type" : "VEC3"
        },
        {
            "bufferView" : 9,
            "componentType" : 5126,
            "count" : 48,
            "type" : "VEC3"
        },
        {
            "bufferView" : 10,
            "componentType" : 5126,
            "count" : 48,
            "type" : "VEC2"
        },
        {
            "bufferView" : 11,
            "componentType" : 5123,
            "count" : 84,
            "type" : "SCALAR"
        },
        {
            "bufferView" : 12,
            "componentType" : 5126,
            "count" : 48,
            "max" : [
                0.2750890254974365,
                0.12797193229198456,
                0.5
            ],
            "min" : [
                -0.5,
                0,
                -0.5
            ],
            "type" : "VEC3"
        },
        {
            "bufferView" : 13,
            "componentType" : 5126,
            "count" : 48,
            "type" : "VEC3"
        },
        {
            "bufferView" : 14,
            "componentType" : 5126,
            "count" : 48,
            "type" : "VEC2"
        },
        {
            "bufferView" : 15,
            "componentType" : 5126,
            "count" : 2615,
            "max" : [
                0.49122026562690735,
                0.30612611770629883,
                0.4669454097747803
            ],
            "min" : [
                -0.4761976897716522,
                -0.016143033280968666,
                -0.3992178440093994
            ],
            "type" : "VEC3"
        },
        {
            "bufferView" : 16,
            "componentType" : 5126,
            "count" : 2615,
            "type" : "VEC3"
        },
        {
            "bufferView" : 17,
            "componentType" : 5126,
            "count" : 2615,
            "type" : "VEC2"
        },
        {
            "bufferView" : 18,
            "componentType" : 5123,
            "count" : 15360,
            "type" : "SCALAR"
        }
    ],
    "bufferViews" : [
        {
            "buffer" : 0,
            "byteLength" : 648,
            "byteOffset" : 0
        },
        {
            "buffer" : 0,
            "byteLength" : 648,
            "byteOffset" : 648
        },
        {
            "buffer" : 0,
            "byteLength" : 432,
            "byteOffset" : 1296
        },
        {
            "buffer" : 0,
            "byteLength" : 264,
            "byteOffset" : 1728
        },
        {
            "buffer" : 0,
            "byteLength" : 408,
            "byteOffset" : 1992
        },
        {
            "buffer" : 0,
            "byteLength" : 408,
            "byteOffset" : 2400
        },
        {
            "buffer" : 0,
            "byteLength" : 272,
            "byteOffset" : 2808
        },
        {
            "buffer" : 0,
            "byteLength" : 144,
            "byteOffset" : 3080
        },
        {
            "buffer" : 0,
            "byteLength" : 576,
            "byteOffset" : 3224
        },
        {
            "buffer" : 0,
            "byteLength" : 576,
            "byteOffset" : 3800
        },
        {
            "buffer" : 0,
            "byteLength" : 384,
            "byteOffset" : 4376
        },
        {
            "buffer" : 0,
            "byteLength" : 168,
            "byteOffset" : 4760
        },
        {
            "buffer" : 0,
            "byteLength" : 576,
            "byteOffset" : 4928
        },
        {
            "buffer" : 0,
            "byteLength" : 576,
            "byteOffset" : 5504
        },
        {
            "buffer" : 0,
            "byteLength" : 384,
            "byteOffset" : 6080
        },
        {
            "buffer" : 0,
            "byteLength" : 31380,
            "byteOffset" : 6464
        },
        {
            "buffer" : 0,
            "byteLength" : 31380,
            "byteOffset" : 37844
        },
        {
            "buffer" : 0,
            "byteLength" : 20920,
            "byteOffset" : 69224
        },
        {
            "buffer" : 0,
            "byteLength" : 30720,
            "byteOffset" : 90144
        }
    ],
    "samplers" : [
        {
            "magFilter" : 9729,
            "minFilter" : 9987
        }
    ],
    "buffers" : [
        {
            "byteLength" : 120864,
            "uri" : "Debris.bin"
        }
    ]
}
