{
    "asset" : {
        "generator" : "Khronos glTF Blender I/O v1.6.16",
        "version" : "2.0"
    },
    "scene" : 0,
    "scenes" : [
        {
            "name" : "Scene",
            "nodes" : [
                0
            ]
        }
    ],
    "nodes" : [
        {
            "mesh" : 0,
            "name" : "Skyscraper2",
            "translation" : [
                0,
                110.21491241455078,
                1.2245635986328125
            ]
        }
    ],
    "materials" : [
        {
            "doubleSided" : true,
            "name" : "Building",
            "normalTexture" : {
                "index" : 0
            },
            "pbrMetallicRoughness" : {
                "baseColorTexture" : {
                    "index" : 1
                },
                "metallicFactor" : 0,
                "roughnessFactor" : 0.07054542750120163
            }
        }
    ],
    "meshes" : [
        {
            "name" : "Cube.007",
            "primitives" : [
                {
                    "attributes" : {
                        "POSITION" : 0,
                        "NORMAL" : 1,
                        "TEXCOORD_0" : 2
                    },
                    "indices" : 3,
                    "material" : 0
                }
            ]
        }
    ],
    "textures" : [
        {
            "sampler" : 0,
            "source" : 0
        },
        {
            "sampler" : 0,
            "source" : 1
        }
    ],
    "images" : [
        {
            "mimeType" : "image/png",
            "name" : "Facade005_1K_NormalGL",
            "uri" : "Facade005_1K_NormalGL.png"
        },
        {
            "mimeType" : "image/png",
            "name" : "Facade005_1K_Color",
            "uri" : "Facade005_1K_Color.png"
        }
    ],
    "accessors" : [
        {
            "bufferView" : 0,
            "componentType" : 5126,
            "count" : 17408,
            "max" : [
                31.980619430541992,
                30.783069610595703,
                55.20110321044922
            ],
            "min" : [
                -26.14151954650879,
                -109.46935272216797,
                -27.256439208984375
            ],
            "type" : "VEC3"
        },
        {
            "bufferView" : 1,
            "componentType" : 5126,
            "count" : 17408,
            "type" : "VEC3"
        },
        {
            "bufferView" : 2,
            "componentType" : 5126,
            "count" : 17408,
            "type" : "VEC2"
        },
        {
            "bufferView" : 3,
            "componentType" : 5123,
            "count" : 26112,
            "type" : "SCALAR"
        }
    ],
    "bufferViews" : [
        {
            "buffer" : 0,
            "byteLength" : 208896,
            "byteOffset" : 0
        },
        {
            "buffer" : 0,
            "byteLength" : 208896,
            "byteOffset" : 208896
        },
        {
            "buffer" : 0,
            "byteLength" : 139264,
            "byteOffset" : 417792
        },
        {
            "buffer" : 0,
            "byteLength" : 52224,
            "byteOffset" : 557056
        }
    ],
    "samplers" : [
        {
            "magFilter" : 9729,
            "minFilter" : 9987
        }
    ],
    "buffers" : [
        {
            "byteLength" : 609280,
            "uri" : "Skyscraper1Broken.bin"
        }
    ]
}
