[gd_scene load_steps=3 format=2]

[ext_resource path="res://Maps/Main/Models/Props/Pots/Pot2.gltf" type="PackedScene" id=1]

[sub_resource type="BoxShape" id=1]
extents = Vector3( 1, 0.458715, 0.563272 )

[node name="Pot2" instance=ExtResource( 1 )]

[node name="StaticBody" type="StaticBody" parent="." index="2"]
transform = Transform( 1, 0, 0, 0, 1, 0, 0, 0, 1, 0, 0.43345, 0 )

[node name="CollisionShape" type="CollisionShape" parent="StaticBody" index="0"]
shape = SubResource( 1 )
