{
    "asset" : {
        "generator" : "Khronos glTF Blender I/O v1.6.16",
        "version" : "2.0"
    },
    "scene" : 0,
    "scenes" : [
        {
            "name" : "Scene",
            "nodes" : [
                0
            ]
        }
    ],
    "nodes" : [
        {
            "mesh" : 0,
            "name" : "Fence1",
            "rotation" : [
                -0.7071068286895752,
                0.7071067690849304,
                0,
                -1.1520231879558196e-07
            ],
            "scale" : [
                1.5096150636672974,
                1.5096150636672974,
                1.5096150636672974
            ],
            "translation" : [
                0,
                1.0137317180633545,
                0
            ]
        }
    ],
    "materials" : [
        {
            "alphaMode" : "BLEND",
            "doubleSided" : true,
            "name" : "Fence",
            "pbrMetallicRoughness" : {
                "baseColorTexture" : {
                    "index" : 0
                },
                "metallicFactor" : 0.778181791305542,
                "roughnessFactor" : 0.3512727618217468
            }
        },
        {
            "doubleSided" : true,
            "name" : "FencePosts",
            "pbrMetallicRoughness" : {
                "metallicFactor" : 0.9236363768577576,
                "roughnessFactor" : 0.2309090793132782
            }
        },
        {
            "alphaMode" : "BLEND",
            "doubleSided" : true,
            "name" : "BarbedWire",
            "pbrMetallicRoughness" : {
                "baseColorTexture" : {
                    "index" : 1
                },
                "metallicFactor" : 0,
                "roughnessFactor" : 0.5
            }
        }
    ],
    "meshes" : [
        {
            "name" : "Plane.011",
            "primitives" : [
                {
                    "attributes" : {
                        "POSITION" : 0,
                        "NORMAL" : 1,
                        "TEXCOORD_0" : 2
                    },
                    "indices" : 3,
                    "material" : 0
                },
                {
                    "attributes" : {
                        "POSITION" : 4,
                        "NORMAL" : 5,
                        "TEXCOORD_0" : 6
                    },
                    "indices" : 7,
                    "material" : 1
                },
                {
                    "attributes" : {
                        "POSITION" : 8,
                        "NORMAL" : 9,
                        "TEXCOORD_0" : 10
                    },
                    "indices" : 11,
                    "material" : 2
                }
            ]
        }
    ],
    "textures" : [
        {
            "sampler" : 0,
            "source" : 0
        },
        {
            "sampler" : 0,
            "source" : 1
        }
    ],
    "images" : [
        {
            "mimeType" : "image/png",
            "name" : "metal_0019_base_color_2k-metal_0019_opacity_2k",
            "uri" : "metal_0019_base_color_2k-metal_0019_opacity_2k.png"
        },
        {
            "mimeType" : "image/png",
            "name" : "barbed_wire_png___by_welshdragonstocknart-da05rch",
            "uri" : "barbed_wire_png___by_welshdragonstocknart-da05rch.png"
        }
    ],
    "accessors" : [
        {
            "bufferView" : 0,
            "componentType" : 5126,
            "count" : 4,
            "max" : [
                0.6710368394851685,
                -0.06576113402843475,
                0.7561777830123901
            ],
            "min" : [
                -0.49808254837989807,
                -0.06576123088598251,
                -0.7557440996170044
            ],
            "type" : "VEC3"
        },
        {
            "bufferView" : 1,
            "componentType" : 5126,
            "count" : 4,
            "type" : "VEC3"
        },
        {
            "bufferView" : 2,
            "componentType" : 5126,
            "count" : 4,
            "type" : "VEC2"
        },
        {
            "bufferView" : 3,
            "componentType" : 5123,
            "count" : 6,
            "type" : "SCALAR"
        },
        {
            "bufferView" : 4,
            "componentType" : 5126,
            "count" : 94,
            "max" : [
                0.6710368394851685,
                0.08751747757196426,
                0.7992565631866455
            ],
            "min" : [
                -0.6710368394851685,
                -0.08751747757196426,
                -0.7992565631866455
            ],
            "type" : "VEC3"
        },
        {
            "bufferView" : 5,
            "componentType" : 5126,
            "count" : 94,
            "type" : "VEC3"
        },
        {
            "bufferView" : 6,
            "componentType" : 5126,
            "count" : 94,
            "type" : "VEC2"
        },
        {
            "bufferView" : 7,
            "componentType" : 5123,
            "count" : 276,
            "type" : "SCALAR"
        },
        {
            "bufferView" : 8,
            "componentType" : 5126,
            "count" : 8,
            "max" : [
                -0.49808254837989807,
                0.06576123088598251,
                0.7561777830123901
            ],
            "min" : [
                -0.6710368394851685,
                -0.06576123088598251,
                -0.7557440996170044
            ],
            "type" : "VEC3"
        },
        {
            "bufferView" : 9,
            "componentType" : 5126,
            "count" : 8,
            "type" : "VEC3"
        },
        {
            "bufferView" : 10,
            "componentType" : 5126,
            "count" : 8,
            "type" : "VEC2"
        },
        {
            "bufferView" : 11,
            "componentType" : 5123,
            "count" : 12,
            "type" : "SCALAR"
        }
    ],
    "bufferViews" : [
        {
            "buffer" : 0,
            "byteLength" : 48,
            "byteOffset" : 0
        },
        {
            "buffer" : 0,
            "byteLength" : 48,
            "byteOffset" : 48
        },
        {
            "buffer" : 0,
            "byteLength" : 32,
            "byteOffset" : 96
        },
        {
            "buffer" : 0,
            "byteLength" : 12,
            "byteOffset" : 128
        },
        {
            "buffer" : 0,
            "byteLength" : 1128,
            "byteOffset" : 140
        },
        {
            "buffer" : 0,
            "byteLength" : 1128,
            "byteOffset" : 1268
        },
        {
            "buffer" : 0,
            "byteLength" : 752,
            "byteOffset" : 2396
        },
        {
            "buffer" : 0,
            "byteLength" : 552,
            "byteOffset" : 3148
        },
        {
            "buffer" : 0,
            "byteLength" : 96,
            "byteOffset" : 3700
        },
        {
            "buffer" : 0,
            "byteLength" : 96,
            "byteOffset" : 3796
        },
        {
            "buffer" : 0,
            "byteLength" : 64,
            "byteOffset" : 3892
        },
        {
            "buffer" : 0,
            "byteLength" : 24,
            "byteOffset" : 3956
        }
    ],
    "samplers" : [
        {
            "magFilter" : 9729,
            "minFilter" : 9987
        }
    ],
    "buffers" : [
        {
            "byteLength" : 3980,
            "uri" : "Fence1.bin"
        }
    ]
}
