[gd_scene load_steps=3 format=2]

[ext_resource path="res://Maps/Main/Models/Props/Fences/Fence3.gltf" type="PackedScene" id=1]

[sub_resource type="BoxShape" id=1]
extents = Vector3( 0.176998, 1.61212, 1.54455 )

[node name="Fence3" instance=ExtResource( 1 )]

[node name="StaticBody" type="StaticBody" parent="." index="1"]
transform = Transform( 1, 0, 0, 0, 1, 0, 0, 0, 1, 0.097, 1.031, 0 )

[node name="CollisionShape" type="CollisionShape" parent="StaticBody" index="0"]
shape = SubResource( 1 )
