{
    "asset" : {
        "generator" : "Khronos glTF Blender I/O v1.6.16",
        "version" : "2.0"
    },
    "scene" : 0,
    "scenes" : [
        {
            "name" : "Scene",
            "nodes" : [
                0
            ]
        }
    ],
    "nodes" : [
        {
            "mesh" : 0,
            "name" : "Basket",
            "translation" : [
                0,
                0.26396629214286804,
                0
            ]
        }
    ],
    "materials" : [
        {
            "doubleSided" : true,
            "name" : "Material",
            "pbrMetallicRoughness" : {
                "baseColorFactor" : [
                    0.8000000715255737,
                    0.6363205909729004,
                    0.45912086963653564,
                    1
                ],
                "metallicFactor" : 0,
                "roughnessFactor" : 0.18545454740524292
            }
        }
    ],
    "meshes" : [
        {
            "name" : "Cube",
            "primitives" : [
                {
                    "attributes" : {
                        "POSITION" : 0,
                        "NORMAL" : 1,
                        "TEXCOORD_0" : 2
                    },
                    "indices" : 3,
                    "material" : 0
                }
            ]
        }
    ],
    "accessors" : [
        {
            "bufferView" : 0,
            "componentType" : 5126,
            "count" : 14559,
            "max" : [
                0.37722116708755493,
                0.2559869587421417,
                0.5097790956497192
            ],
            "min" : [
                -0.37722113728523254,
                -0.2629690170288086,
                -0.5097790956497192
            ],
            "type" : "VEC3"
        },
        {
            "bufferView" : 1,
            "componentType" : 5126,
            "count" : 14559,
            "type" : "VEC3"
        },
        {
            "bufferView" : 2,
            "componentType" : 5126,
            "count" : 14559,
            "type" : "VEC2"
        },
        {
            "bufferView" : 3,
            "componentType" : 5123,
            "count" : 22080,
            "type" : "SCALAR"
        }
    ],
    "bufferViews" : [
        {
            "buffer" : 0,
            "byteLength" : 174708,
            "byteOffset" : 0
        },
        {
            "buffer" : 0,
            "byteLength" : 174708,
            "byteOffset" : 174708
        },
        {
            "buffer" : 0,
            "byteLength" : 116472,
            "byteOffset" : 349416
        },
        {
            "buffer" : 0,
            "byteLength" : 44160,
            "byteOffset" : 465888
        }
    ],
    "buffers" : [
        {
            "byteLength" : 510048,
            "uri" : "Basket.bin"
        }
    ]
}
