{
    "asset" : {
        "generator" : "Khronos glTF Blender I/O v1.6.16",
        "version" : "2.0"
    },
    "extensionsUsed" : [
        "KHR_materials_transmission"
    ],
    "scene" : 0,
    "scenes" : [
        {
            "name" : "Scene",
            "nodes" : [
                0
            ]
        }
    ],
    "nodes" : [
        {
            "mesh" : 0,
            "name" : "Bottle2",
            "scale" : [
                1.3381301164627075,
                1.3381301164627075,
                1.3381301164627075
            ],
            "translation" : [
                0,
                0.13260690867900848,
                0
            ]
        }
    ],
    "materials" : [
        {
            "doubleSided" : true,
            "extensions" : {
                "KHR_materials_transmission" : {
                    "transmissionFactor" : 1
                }
            },
            "name" : "GreenGlass",
            "pbrMetallicRoughness" : {
                "baseColorFactor" : [
                    0.0003741458058357239,
                    0.1580234169960022,
                    0,
                    1
                ],
                "metallicFactor" : 0,
                "roughnessFactor" : 0.18690910935401917
            }
        }
    ],
    "meshes" : [
        {
            "name" : "Cylinder.001",
            "primitives" : [
                {
                    "attributes" : {
                        "POSITION" : 0,
                        "NORMAL" : 1,
                        "TEXCOORD_0" : 2
                    },
                    "indices" : 3,
                    "material" : 0
                }
            ]
        }
    ],
    "accessors" : [
        {
            "bufferView" : 0,
            "componentType" : 5126,
            "count" : 251,
            "max" : [
                0.03707170858979225,
                0.12266536056995392,
                0.03707170858979225
            ],
            "min" : [
                -0.03707170858979225,
                -0.10000000149011612,
                -0.03707170858979225
            ],
            "type" : "VEC3"
        },
        {
            "bufferView" : 1,
            "componentType" : 5126,
            "count" : 251,
            "type" : "VEC3"
        },
        {
            "bufferView" : 2,
            "componentType" : 5126,
            "count" : 251,
            "type" : "VEC2"
        },
        {
            "bufferView" : 3,
            "componentType" : 5123,
            "count" : 1194,
            "type" : "SCALAR"
        }
    ],
    "bufferViews" : [
        {
            "buffer" : 0,
            "byteLength" : 3012,
            "byteOffset" : 0
        },
        {
            "buffer" : 0,
            "byteLength" : 3012,
            "byteOffset" : 3012
        },
        {
            "buffer" : 0,
            "byteLength" : 2008,
            "byteOffset" : 6024
        },
        {
            "buffer" : 0,
            "byteLength" : 2388,
            "byteOffset" : 8032
        }
    ],
    "buffers" : [
        {
            "byteLength" : 10420,
            "uri" : "Bottle2.bin"
        }
    ]
}
